\relax 
\catcode `:\active 
\catcode `;\active 
\catcode `!\active 
\catcode `?\active 
\select@language{french}
\@writefile{toc}{\select@language{french}}
\@writefile{lof}{\select@language{french}}
\@writefile{lot}{\select@language{french}}
\@writefile{toc}{\contentsline {section}{\numberline {1}Les matchs en direct.}{1}}
\@writefile{toc}{\contentsline {subsection}{\numberline {1.1}Question 17: le serveur.}{1}}
\@writefile{toc}{\contentsline {subsection}{\numberline {1.2}Question 18: l'observateur.}{1}}
\@writefile{toc}{\contentsline {section}{\numberline {2}Un joueur \IeC {\`a} distance}{2}}
\@writefile{toc}{\contentsline {subsection}{\numberline {2.1}Question 22: diff\IeC {\'e}rents protocoles.}{2}}
\@writefile{toc}{\contentsline {subsection}{\numberline {2.2}Question 23: le protocole choisi.}{2}}
\@writefile{toc}{\contentsline {subsection}{\numberline {2.3}Question 24: la robustesse.}{2}}
\newlabel{sub:robustesse}{{2.3}{2}}
\@writefile{toc}{\contentsline {subsection}{\numberline {2.4}Question 27: le chrono}{2}}
\newlabel{sub:chrono}{{2.4}{2}}
